<?xml version="1.0" standalone="no"?>
<!DOCTYPE svg PUBLIC "-//W3C//DTD SVG 1.1//EN" "http://www.w3.org/Graphics/SVG/1.1/DTD/svg11.dtd" >
<svg xmlns="http://www.w3.org/2000/svg">
<metadata></metadata>
<defs>
<font id="open_sanslight" horiz-adv-x="1169" >
<font-face units-per-em="2048" ascent="1638" descent="-410" />
<missing-glyph horiz-adv-x="532" />
<glyph horiz-adv-x="2048" />
<glyph horiz-adv-x="2048" />
<glyph unicode="&#xd;" horiz-adv-x="1044" />
<glyph unicode=" "  horiz-adv-x="532" />
<glyph unicode="&#x09;" horiz-adv-x="532" />
<glyph unicode="&#xa0;" horiz-adv-x="532" />
<glyph unicode="!" horiz-adv-x="492" d="M164 78q0 98 80 98q82 0 82 -98t-82 -98q-80 0 -80 98zM186 1462h119l-29 -1085h-61z" />
<glyph unicode="&#x22;" horiz-adv-x="723" d="M133 1462h127l-33 -528h-61zM463 1462h127l-33 -528h-61z" />
<glyph unicode="#" horiz-adv-x="1323" d="M55 451v79h299l76 398h-297v80h311l86 454h91l-89 -454h365l88 454h86l-88 -454h285v-80h-301l-76 -398h303v-79h-320l-86 -451h-90l88 451h-360l-86 -451h-88l86 451h-283zM440 530h363l78 398h-363z" />
<glyph unicode="$" d="M164 186v103q75 -36 179.5 -61t193.5 -25v508q-145 44 -215 88t-102 104t-32 146q0 124 94.5 208.5t254.5 104.5v192h81v-190q197 -9 351 -72l-33 -90q-141 62 -318 72v-486q213 -66 293 -144t80 -204q0 -133 -99 -217t-274 -106v-236h-81v232q-92 2 -200.5 22.5 t-172.5 50.5zM297 1049q0 -86 57 -141t183 -93v453q-119 -16 -179.5 -76t-60.5 -143zM618 209q122 13 192.5 75t70.5 160q0 85 -63 140.5t-200 95.5v-471z" />
<glyph unicode="%" horiz-adv-x="1653" d="M113 1026q0 223 72 340t212 117q139 0 215 -120.5t76 -336.5q0 -226 -75 -343.5t-216 -117.5q-133 0 -208.5 120.5t-75.5 340.5zM211 1026q0 -186 45 -279.5t141 -93.5q193 0 193 373q0 184 -49.5 276.5t-143.5 92.5q-96 0 -141 -92.5t-45 -276.5zM373 0l811 1462h96 l-811 -1462h-96zM965 438q0 225 73.5 341t212.5 116q137 0 213 -120t76 -337q0 -226 -74 -343.5t-215 -117.5q-136 0 -211 121.5t-75 339.5zM1063 438q0 -185 45 -277.5t141 -92.5q193 0 193 370q0 369 -193 369q-96 0 -141 -91.5t-45 -277.5z" />
<glyph unicode="&#x26;" horiz-adv-x="1460" d="M123 371q0 138 73.5 235t274.5 205l-75 82q-66 71 -98 139t-32 142q0 143 95.5 227t256.5 84q155 0 245.5 -81t90.5 -224q0 -105 -70 -192.5t-253 -194.5l452 -457q61 72 104 157t75 201h96q-63 -246 -209 -426l266 -268h-135l-193 197q-92 -90 -164 -131.5t-157.5 -63.5 t-194.5 -22q-209 0 -328.5 103t-119.5 288zM227 375q0 -143 93 -224t258 -81q128 0 234.5 43.5t209.5 146.5l-483 485q-136 -72 -196.5 -122.5t-88 -109.5t-27.5 -138zM373 1176q0 -79 40 -146t152 -174q159 85 221 159t62 169q0 94 -62 152.5t-168 58.5q-114 0 -179.5 -58 t-65.5 -161z" />
<glyph unicode="'" horiz-adv-x="393" d="M133 1462h127l-33 -528h-61z" />
<glyph unicode="(" horiz-adv-x="557" d="M82 561q0 265 77.5 496t223.5 405h113q-148 -182 -227 -412.5t-79 -486.5q0 -483 304 -887h-111q-147 170 -224 397t-77 488z" />
<glyph unicode=")" horiz-adv-x="557" d="M61 1462h113q147 -175 224 -406.5t77 -494.5t-77.5 -490t-223.5 -395h-111q304 404 304 887q0 257 -79 487.5t-227 411.5z" />
<glyph unicode="*" horiz-adv-x="1128" d="M104 1124l19 131l401 -104l-39 405h146l-37 -405l405 104l21 -131l-395 -39l247 -340l-124 -71l-191 379l-180 -379l-125 71l242 340z" />
<glyph unicode="+" d="M111 682v82h432v434h82v-434h434v-82h-434v-432h-82v432h-432z" />
<glyph unicode="," horiz-adv-x="440" d="M68 -264q77 275 110 502h117l12 -21q-75 -265 -174 -481h-65z" />
<glyph unicode="-" horiz-adv-x="659" d="M92 512v82h475v-82h-475z" />
<glyph unicode="." horiz-adv-x="487" d="M162 78q0 98 80 98q82 0 82 -98t-82 -98q-80 0 -80 98z" />
<glyph unicode="/" horiz-adv-x="698" d="M25 0l544 1462h105l-545 -1462h-104z" />
<glyph unicode="0" d="M115 735q0 382 115.5 566t351.5 184q231 0 352 -190.5t121 -559.5q0 -385 -117.5 -570t-355.5 -185q-229 0 -348 190.5t-119 564.5zM223 735q0 -340 89 -502.5t270 -162.5q189 0 275.5 168t86.5 497q0 324 -86.5 492t-275.5 168t-274 -168t-85 -492z" />
<glyph unicode="1" d="M199 1165l397 297h86v-1462h-98v1065q0 145 12 301q-15 -15 -31 -29t-309 -243z" />
<glyph unicode="2" d="M113 0v88l389 406q164 170 230 260t97 172t31 172q0 131 -86 213t-223 82q-183 0 -350 -133l-54 69q183 154 406 154q191 0 300.5 -102t109.5 -281q0 -145 -73.5 -280.5t-268.5 -334.5l-375 -385v-4h782v-96h-915z" />
<glyph unicode="3" d="M94 63v99q84 -44 188.5 -69t196.5 -25q221 0 332 89.5t111 252.5q0 145 -113.5 223t-333.5 78h-158v96h160q182 0 288.5 86.5t106.5 234.5q0 122 -86.5 195.5t-226.5 73.5q-109 0 -199 -30.5t-202 -104.5l-49 67q85 71 205 112.5t243 41.5q202 0 312 -95.5t110 -269.5 q0 -136 -85.5 -229t-229.5 -119v-6q176 -22 268 -112t92 -242q0 -205 -139.5 -317.5t-401.5 -112.5q-223 0 -389 83z" />
<glyph unicode="4" d="M43 373v67l725 1030h121v-1011h252v-86h-252v-373h-94v373h-752zM162 459h633v418q0 302 14 507h-8q-20 -37 -123 -188z" />
<glyph unicode="5" d="M143 63v103q108 -55 192 -76.5t179 -21.5q192 0 308 101.5t116 274.5q0 163 -113 256t-307 93q-130 0 -272 -39l-60 39l58 669h704v-96h-610l-45 -516q156 29 244 29q234 0 368.5 -113t134.5 -311q0 -225 -140 -350t-386 -125q-109 0 -207 21.5t-164 61.5z" />
<glyph unicode="6" d="M131 623q0 285 77.5 479.5t220 288.5t343.5 94q94 0 172 -23v-88q-73 27 -176 27q-247 0 -384.5 -178t-154.5 -518h13q76 98 174 148t207 50q205 0 320.5 -117t115.5 -323q0 -224 -121.5 -353.5t-327.5 -129.5q-222 0 -350.5 169.5t-128.5 473.5zM240 504 q0 -111 49.5 -213.5t134 -162.5t186.5 -60q164 0 255 103t91 294q0 168 -90 262t-245 94q-102 0 -189.5 -45t-139.5 -119.5t-52 -152.5z" />
<glyph unicode="7" d="M109 1366v96h946v-73l-604 -1389h-117l602 1366h-827z" />
<glyph unicode="8" d="M121 375q0 131 83 230t257 169q-161 76 -227 160.5t-66 202.5q0 105 53 184.5t148.5 122.5t212.5 43q186 0 299.5 -95t113.5 -257q0 -112 -70.5 -198t-228.5 -159q192 -79 270 -173t78 -228q0 -181 -126.5 -289t-339.5 -108q-221 0 -339 101t-118 294zM223 360 q0 -138 93.5 -214t261.5 -76q164 0 264 80.5t100 218.5q0 124 -78.5 201.5t-302.5 162.5q-184 -71 -261 -157t-77 -216zM268 1137q0 -70 31.5 -123.5t91 -97t199.5 -101.5q163 63 234 139t71 183q0 120 -84.5 190t-230.5 70q-141 0 -226.5 -69.5t-85.5 -190.5z" />
<glyph unicode="9" d="M111 993q0 220 124.5 356t323.5 136q144 0 252 -75.5t166.5 -221.5t58.5 -346q0 -288 -75.5 -482t-220 -287t-349.5 -93q-104 0 -192 26v86q43 -14 103.5 -21.5t92.5 -7.5q247 0 387 178.5t156 520.5h-12q-73 -96 -174 -147.5t-211 -51.5q-203 0 -316.5 112t-113.5 318z M213 999q0 -174 87 -264t249 -90q101 0 188.5 45t139 119.5t51.5 151.5q0 117 -46.5 219t-130 159.5t-192.5 57.5q-158 0 -252 -106.5t-94 -291.5z" />
<glyph unicode=":" horiz-adv-x="487" d="M162 78q0 98 80 98q82 0 82 -98t-82 -98q-80 0 -80 98zM162 971q0 98 80 98q82 0 82 -98q0 -53 -23.5 -76t-58.5 -23q-34 0 -57 23t-23 76z" />
<glyph unicode=";" horiz-adv-x="487" d="M76 -264q29 97 62 245.5t48 256.5h117l12 -21q-75 -265 -174 -481h-65zM162 971q0 98 80 98q82 0 82 -98q0 -53 -23.5 -76t-58.5 -23q-34 0 -57 23t-23 76z" />
<glyph unicode="&#x3c;" d="M111 682v61l948 474v-95l-823 -405l823 -355v-96z" />
<glyph unicode="=" d="M111 477v82h948v-82h-948zM111 885v82h948v-82h-948z" />
<glyph unicode="&#x3e;" d="M111 266v96l823 355l-823 405v95l948 -474v-61z" />
<glyph unicode="?" horiz-adv-x="862" d="M57 1403q110 48 184.5 64t153.5 16q183 0 288 -98.5t105 -270.5q0 -68 -18 -119t-50.5 -94.5t-78.5 -84t-102 -87.5q-64 -54 -98.5 -98.5t-50 -93.5t-15.5 -146v-14h-82v37q0 123 37.5 201t138.5 167l91 79q72 61 103 121t31 138q0 127 -83.5 202t-219.5 75 q-79 0 -148 -17.5t-149 -56.5zM260 78q0 98 80 98q82 0 82 -98t-82 -98q-80 0 -80 98z" />
<glyph unicode="@" horiz-adv-x="1815" d="M113 561q0 256 108.5 460.5t307 317.5t448.5 113q215 0 380.5 -89t255 -254.5t89.5 -383.5q0 -228 -90.5 -366t-245.5 -138q-89 0 -144.5 54t-64.5 147h-4q-43 -100 -124 -150.5t-189 -50.5q-148 0 -229 96.5t-81 270.5q0 202 120.5 330.5t314.5 128.5q138 0 286 -41 l-22 -464v-30q0 -104 35 -156.5t116 -52.5q103 0 168.5 116.5t65.5 303.5q0 194 -79 340t-225.5 224.5t-334.5 78.5q-230 0 -405.5 -99.5t-270 -281.5t-94.5 -418q0 -322 167 -497.5t474 -175.5q93 0 188.5 18t231.5 70v-99q-203 -80 -414 -80q-349 0 -544 200.5t-195 557.5 zM633 590q0 -143 55 -215t174 -72q255 0 273 346l16 291q-79 27 -193 27q-149 0 -237 -102.5t-88 -274.5z" />
<glyph unicode="A" horiz-adv-x="1229" d="M0 0l588 1468h65l576 -1468h-115l-203 516h-594l-204 -516h-113zM354 608h523l-199 527q-25 62 -60 172q-27 -96 -59 -174z" />
<glyph unicode="B" horiz-adv-x="1284" d="M207 0v1462h401q271 0 398 -92t127 -278q0 -127 -77.5 -211.5t-226.5 -108.5v-6q175 -26 257.5 -110.5t82.5 -235.5q0 -202 -134 -311t-380 -109h-448zM309 90h344q406 0 406 330q0 301 -428 301h-322v-631zM309 811h322q206 0 299.5 68.5t93.5 214.5t-105.5 212 t-314.5 66h-295v-561z" />
<glyph unicode="C" horiz-adv-x="1272" d="M129 735q0 223 84.5 393t243 262.5t368.5 92.5q214 0 383 -80l-41 -92q-160 80 -336 80q-275 0 -433 -176t-158 -482q0 -313 149 -486t426 -173q184 0 338 47v-90q-145 -51 -362 -51q-308 0 -485 199t-177 556z" />
<glyph unicode="D" horiz-adv-x="1446" d="M207 0v1462h395q350 0 532.5 -183t182.5 -534q0 -368 -193 -556.5t-567 -188.5h-350zM309 90h242q655 0 655 651q0 314 -159.5 472.5t-468.5 158.5h-269v-1282z" />
<glyph unicode="E" horiz-adv-x="1130" d="M207 0v1462h799v-94h-697v-553h658v-94h-658v-627h697v-94h-799z" />
<glyph unicode="F" horiz-adv-x="1028" d="M207 0v1462h801v-94h-699v-620h660v-95h-660v-653h-102z" />
<glyph unicode="G" horiz-adv-x="1481" d="M129 729q0 223 91.5 395.5t262 266.5t391.5 94q239 0 429 -88l-41 -92q-190 88 -394 88q-289 0 -458.5 -178.5t-169.5 -481.5q0 -330 161 -496.5t473 -166.5q202 0 343 57v514h-435v96h539v-667q-212 -90 -477 -90q-346 0 -530.5 195.5t-184.5 553.5z" />
<glyph unicode="H" horiz-adv-x="1473" d="M207 0v1462h102v-649h854v649h103v-1462h-103v719h-854v-719h-102z" />
<glyph unicode="I" horiz-adv-x="516" d="M207 0v1462h102v-1462h-102z" />
<glyph unicode="J" horiz-adv-x="506" d="M-184 -254q78 -20 149 -20q242 0 242 264v1472h102v-1462q0 -369 -342 -369q-92 0 -151 27v88z" />
<glyph unicode="K" horiz-adv-x="1190" d="M207 0v1462h102v-760l162 162l573 598h130l-599 -618l615 -844h-125l-561 772l-195 -172v-600h-102z" />
<glyph unicode="L" horiz-adv-x="1051" d="M207 0v1462h102v-1366h697v-96h-799z" />
<glyph unicode="M" horiz-adv-x="1767" d="M207 0v1462h158l518 -1286h6l518 1286h154v-1462h-103v1108q0 116 12 240h-8l-547 -1348h-65l-545 1350h-8q8 -124 8 -254v-1096h-98z" />
<glyph unicode="N" horiz-adv-x="1477" d="M207 0v1462h102l865 -1296h6q-9 180 -9 342v954h99v-1462h-103l-866 1298h-8q12 -232 12 -350v-948h-98z" />
<glyph unicode="O" horiz-adv-x="1565" d="M129 735q0 349 175.5 549.5t479.5 200.5q306 0 479 -201.5t173 -550.5q0 -348 -174 -550.5t-480 -202.5q-305 0 -479 202.5t-174 552.5zM240 733q0 -314 140 -485.5t402 -171.5q264 0 403.5 170t139.5 487q0 316 -139.5 484.5t-401.5 168.5q-261 0 -402.5 -170 t-141.5 -483z" />
<glyph unicode="P" horiz-adv-x="1198" d="M207 0v1462h358q522 0 522 -420q0 -212 -144 -325t-408 -113h-226v-604h-102zM309 692h201q247 0 357 81.5t110 264.5q0 169 -104 250.5t-322 81.5h-242v-678z" />
<glyph unicode="Q" horiz-adv-x="1565" d="M129 735q0 349 175.5 549.5t479.5 200.5q306 0 479 -201.5t173 -550.5q0 -294 -126 -486.5t-349 -246.5l333 -348h-166l-282 330l-33 -2h-31q-305 0 -479 202.5t-174 552.5zM240 733q0 -314 140 -485.5t402 -171.5q264 0 403.5 170t139.5 487q0 316 -139.5 484.5 t-401.5 168.5q-261 0 -402.5 -170t-141.5 -483z" />
<glyph unicode="R" horiz-adv-x="1217" d="M207 0v1462h348q272 0 402 -100.5t130 -302.5q0 -147 -77.5 -248t-235.5 -145l397 -666h-122l-377 637h-363v-637h-102zM309 725h279q185 0 287 82.5t102 243.5q0 167 -100 243t-326 76h-242v-645z" />
<glyph unicode="S" horiz-adv-x="1116" d="M111 39v102q158 -67 403 -67q180 0 285.5 82.5t105.5 216.5q0 83 -35 137.5t-114 99.5t-232 97q-224 77 -309.5 166.5t-85.5 238.5q0 164 128.5 267.5t330.5 103.5q206 0 387 -78l-37 -88q-182 76 -348 76q-162 0 -258 -75t-96 -204q0 -81 29.5 -133t96.5 -93.5 t230 -99.5q171 -59 257 -114.5t125.5 -126t39.5 -170.5q0 -183 -134.5 -290t-357.5 -107q-268 0 -411 59z" />
<glyph unicode="T" horiz-adv-x="1073" d="M10 1366v96h1053v-96h-475v-1366h-103v1366h-475z" />
<glyph unicode="U" horiz-adv-x="1473" d="M190 520v942h103v-946q0 -211 117 -328.5t331 -117.5q209 0 324 115.5t115 320.5v956h102v-946q0 -252 -146 -394t-407 -142q-254 0 -396.5 142.5t-142.5 397.5z" />
<glyph unicode="V" horiz-adv-x="1182" d="M0 1462h109l368 -995q84 -225 113 -338q20 75 79 233l402 1100h111l-547 -1462h-90z" />
<glyph unicode="W" horiz-adv-x="1827" d="M51 1462h107l256 -942q15 -57 28 -105.5t23.5 -91t19 -82t15.5 -79.5q24 136 102 413l250 887h113l293 -1018q51 -176 73 -284q13 72 33.5 153t308.5 1149h103l-404 -1462h-84l-321 1128q-40 139 -60 228q-16 -87 -45.5 -200t-322.5 -1156h-86z" />
<glyph unicode="X" horiz-adv-x="1102" d="M0 0l492 762l-447 700h115l395 -626l401 626h109l-453 -698l490 -764h-117l-432 682l-440 -682h-113z" />
<glyph unicode="Y" horiz-adv-x="1081" d="M0 1462h117l426 -800l428 800h110l-487 -897v-565h-105v557z" />
<glyph unicode="Z" horiz-adv-x="1180" d="M82 0v76l856 1290h-817v96h954v-76l-858 -1290h881v-96h-1016z" />
<glyph unicode="[" horiz-adv-x="653" d="M174 -324v1786h428v-94h-330v-1597h330v-95h-428z" />
<glyph unicode="\" horiz-adv-x="698" d="M25 1462h102l547 -1462h-103z" />
<glyph unicode="]" horiz-adv-x="653" d="M51 -229h330v1597h-330v94h428v-1786h-428v95z" />
<glyph unicode="^" d="M88 561l465 912h68l460 -912h-100l-395 791l-398 -791h-100z" />
<glyph unicode="_" horiz-adv-x="842" d="M-4 -184h850v-82h-850v82z" />
<glyph unicode="`" horiz-adv-x="1182" d="M393 1552v17h142q26 -48 98.5 -142t142.5 -170v-16h-69q-96 79 -188.5 171.5t-125.5 139.5z" />
<glyph unicode="a" horiz-adv-x="1085" d="M98 289q0 159 132.5 247t383.5 93l207 6v72q0 155 -63 234t-203 79q-151 0 -313 -84l-37 86q179 84 354 84q179 0 267.5 -93t88.5 -290v-723h-73l-25 172h-8q-82 -105 -168.5 -148.5t-204.5 -43.5q-160 0 -249 82t-89 227zM203 285q0 -102 62.5 -158.5t176.5 -56.5 q174 0 274.5 99.5t100.5 276.5v107l-190 -8q-229 -11 -326.5 -71.5t-97.5 -188.5z" />
<glyph unicode="b" horiz-adv-x="1219" d="M182 0v1556h99v-391q0 -88 -4 -162l-3 -85h7q62 98 149.5 144t210.5 46q228 0 343.5 -143.5t115.5 -419.5q0 -271 -121.5 -418t-341.5 -147q-116 0 -209 48t-147 136h-9l-28 -164h-62zM281 528q0 -246 86.5 -353t269.5 -107q178 0 268 124.5t90 354.5q0 471 -356 471 q-192 0 -275 -110t-83 -363v-17z" />
<glyph unicode="c" horiz-adv-x="973" d="M119 537q0 270 137 420.5t375 150.5q141 0 270 -49l-27 -88q-141 47 -245 47q-200 0 -303 -123.5t-103 -355.5q0 -220 103 -344.5t288 -124.5q148 0 275 53v-92q-104 -51 -273 -51q-233 0 -365 147t-132 410z" />
<glyph unicode="d" horiz-adv-x="1219" d="M119 528q0 282 118 431t343 149q118 0 204 -43t154 -147h6q-6 126 -6 247v391h98v-1556h-65l-25 166h-8q-124 -186 -356 -186q-225 0 -344 140t-119 408zM223 530q0 -462 359 -462q184 0 270 107t86 353v17q0 252 -84.5 362.5t-273.5 110.5q-178 0 -267.5 -125 t-89.5 -363z" />
<glyph unicode="e" horiz-adv-x="1124" d="M119 535q0 260 128 416.5t345 156.5q192 0 303 -134t111 -364v-80h-783q2 -224 104.5 -342t293.5 -118q93 0 163.5 13t178.5 56v-90q-92 -40 -170 -54.5t-172 -14.5q-237 0 -369.5 146t-132.5 409zM229 618h672q0 189 -82 295.5t-227 106.5q-157 0 -252 -103.5 t-111 -298.5z" />
<glyph unicode="f" horiz-adv-x="614" d="M29 1001v58l202 37v84q0 200 73.5 293.5t240.5 93.5q90 0 180 -27l-23 -86q-80 25 -159 25q-116 0 -164.5 -68.5t-48.5 -222.5v-101h256v-86h-256v-1001h-99v1001h-202z" />
<glyph unicode="g" horiz-adv-x="1071" d="M45 -193q0 112 69.5 186t188.5 101q-49 21 -78.5 59.5t-29.5 88.5q0 109 139 192q-95 39 -148 122.5t-53 191.5q0 163 103.5 261.5t279.5 98.5q107 0 166 -21h348v-69l-225 -14q90 -112 90 -246q0 -157 -104.5 -254.5t-280.5 -97.5q-74 0 -104 6q-59 -31 -90 -73t-31 -89 q0 -52 39.5 -76t132.5 -24h190q177 0 271 -71.5t94 -211.5q0 -172 -139.5 -265.5t-397.5 -93.5q-205 0 -317.5 79t-112.5 220zM150 -184q0 -224 333 -224q428 0 428 273q0 98 -67 142t-217 44h-178q-299 0 -299 -235zM233 748q0 -126 76.5 -195.5t204.5 -69.5 q136 0 208.5 69t72.5 200q0 139 -74.5 208.5t-208.5 69.5q-130 0 -204.5 -74.5t-74.5 -207.5z" />
<glyph unicode="h" horiz-adv-x="1208" d="M182 0v1556h99v-495l-5 -139h7q61 98 154 142t231 44q370 0 370 -397v-711h-98v705q0 164 -69 238.5t-214 74.5q-195 0 -285.5 -98.5t-90.5 -319.5v-600h-99z" />
<glyph unicode="i" horiz-adv-x="463" d="M168 1389q0 96 63 96q31 0 48.5 -25t17.5 -71q0 -45 -17.5 -71t-48.5 -26q-63 0 -63 97zM182 0v1087h99v-1087h-99z" />
<glyph unicode="j" horiz-adv-x="463" d="M-98 -381q69 -20 129 -20q151 0 151 176v1312h99v-1298q0 -135 -63.5 -208t-180.5 -73q-80 0 -135 25v86zM168 1389q0 96 63 96q31 0 48.5 -25t17.5 -71q0 -45 -17.5 -71t-48.5 -26q-63 0 -63 97z" />
<glyph unicode="k" horiz-adv-x="991" d="M182 0v1556h99v-780l-7 -299h5l555 610h120l-428 -464l465 -623h-119l-413 549l-178 -162v-387h-99z" />
<glyph unicode="l" horiz-adv-x="463" d="M182 0v1556h99v-1556h-99z" />
<glyph unicode="m" horiz-adv-x="1808" d="M182 0v1087h82l21 -149h6q45 81 128 125.5t183 44.5q257 0 330 -193h4q53 93 142.5 143t203.5 50q178 0 267 -95t89 -302v-711h-98v713q0 159 -62 232t-190 73q-167 0 -247 -92t-80 -289v-637h-101v743q0 275 -252 275q-171 0 -249 -99.5t-78 -318.5v-600h-99z" />
<glyph unicode="n" horiz-adv-x="1208" d="M182 0v1087h84l19 -149h6q106 170 377 170q370 0 370 -397v-711h-98v705q0 164 -69 238.5t-214 74.5q-195 0 -285.5 -98.5t-90.5 -319.5v-600h-99z" />
<glyph unicode="o" horiz-adv-x="1200" d="M119 545q0 266 129 414.5t354 148.5q224 0 351.5 -150.5t127.5 -412.5q0 -266 -129 -415.5t-356 -149.5q-143 0 -252 69t-167 198t-58 298zM223 545q0 -224 98.5 -349.5t278.5 -125.5t278.5 125.5t98.5 349.5q0 225 -99.5 349t-279.5 124t-277.5 -123.5t-97.5 -349.5z " />
<glyph unicode="p" horiz-adv-x="1219" d="M182 -492v1579h84l19 -155h6q112 176 358 176q220 0 335.5 -144.5t115.5 -420.5q0 -268 -121.5 -415.5t-331.5 -147.5q-251 0 -366 188h-7l3 -84q4 -74 4 -162v-414h-99zM281 541q0 -255 85.5 -364t278.5 -109q167 0 258.5 124t91.5 347q0 479 -346 479 q-190 0 -279 -104.5t-89 -340.5v-32z" />
<glyph unicode="q" horiz-adv-x="1219" d="M119 532q0 275 118 425.5t338 150.5q236 0 353 -174h6l18 153h84v-1579h-98v414q0 122 6 248h-6q-118 -190 -369 -190q-214 0 -332 142t-118 410zM223 530q0 -229 89.5 -345.5t258.5 -116.5q198 0 282.5 109t84.5 366v12q0 245 -85 354t-271 109q-176 0 -267.5 -124 t-91.5 -364z" />
<glyph unicode="r" horiz-adv-x="797" d="M182 0v1087h84l10 -196h7q67 120 143 168.5t184 48.5q69 0 148 -14l-19 -95q-68 17 -141 17q-139 0 -228 -118t-89 -298v-600h-99z" />
<glyph unicode="s" horiz-adv-x="954" d="M84 47v107q164 -82 346 -82q161 0 244.5 53.5t83.5 142.5q0 82 -66.5 138t-218.5 110q-163 59 -229 101.5t-99.5 96t-33.5 130.5q0 122 102.5 193t286.5 71q176 0 334 -66l-37 -90q-160 66 -297 66q-133 0 -211 -44t-78 -122q0 -85 60.5 -136t236.5 -114 q147 -53 214 -95.5t100.5 -96.5t33.5 -127q0 -146 -111 -224.5t-315 -78.5q-218 0 -346 67z" />
<glyph unicode="t" horiz-adv-x="686" d="M25 1001v58l161 45l50 246h51v-263h319v-86h-319v-688q0 -125 44 -185t138 -60t164 16v-80q-72 -24 -166 -24q-144 0 -212.5 77t-68.5 242v702h-161z" />
<glyph unicode="u" horiz-adv-x="1208" d="M170 377v710h98v-704q0 -164 69 -238.5t214 -74.5q194 0 285.5 98t91.5 319v600h98v-1087h-84l-18 150h-6q-106 -170 -377 -170q-371 0 -371 397z" />
<glyph unicode="v" horiz-adv-x="940" d="M0 1087h102l281 -739q56 -142 84 -248h6q41 136 84 250l281 737h102l-420 -1087h-100z" />
<glyph unicode="w" horiz-adv-x="1481" d="M31 1087h106l174 -630q61 -234 80 -344h6q59 234 86 311l224 663h90l213 -661q72 -235 88 -311h6q8 65 80 348l166 624h100l-295 -1087h-104l-238 727q-23 74 -59 217h-6l-21 -74l-45 -145l-242 -725h-98z" />
<glyph unicode="x" horiz-adv-x="1020" d="M55 0l394 559l-379 528h114l324 -458l321 458h109l-373 -528l400 -559h-115l-342 485l-344 -485h-109z" />
<glyph unicode="y" horiz-adv-x="940" d="M0 1087h102l230 -610q105 -281 133 -379h6q42 129 137 385l230 604h102l-487 -1263q-59 -154 -99 -208t-93.5 -81t-129.5 -27q-57 0 -127 21v86q58 -16 125 -16q51 0 90 24t70.5 74.5t73 160t53.5 142.5z" />
<glyph unicode="z" horiz-adv-x="944" d="M82 0v63l645 936h-598v88h727v-63l-649 -936h651v-88h-776z" />
<glyph unicode="{" horiz-adv-x="723" d="M61 528v80q122 2 176 51t54 148v350q0 299 360 305v-90q-138 -5 -200 -58t-62 -157v-305q0 -130 -44 -194t-142 -85v-8q97 -20 141.5 -83.5t44.5 -186.5v-322q0 -102 59.5 -152.5t202.5 -53.5v-91q-195 0 -277.5 75t-82.5 231v337q0 205 -230 209z" />
<glyph unicode="|" horiz-adv-x="1108" d="M508 -506v2067h92v-2067h-92z" />
<glyph unicode="}" horiz-adv-x="723" d="M72 -233q141 2 201.5 52.5t60.5 153.5v322q0 123 44.5 186.5t141.5 83.5v8q-97 20 -141.5 84t-44.5 195v305q0 103 -61.5 156.5t-200.5 58.5v90q174 0 267 -77.5t93 -227.5v-350q0 -100 54.5 -148.5t175.5 -50.5v-80q-230 -4 -230 -209v-337q0 -155 -82.5 -230.5 t-277.5 -75.5v91z" />
<glyph unicode="~" d="M111 625v94q108 110 233 110q61 0 115 -13.5t155 -57.5q126 -58 220 -58q56 0 109.5 30.5t115.5 94.5v-96q-48 -49 -104.5 -81t-129.5 -32q-116 0 -270 72q-124 57 -221 57q-49 0 -108 -30.5t-115 -89.5z" />
<glyph unicode="&#xa2;" d="M211 745q0 232 102.5 381.5t288.5 182.5v174h82v-166h14q131 0 275 -55l-31 -84q-134 51 -237 51q-187 0 -288.5 -122.5t-101.5 -358.5q0 -225 100.5 -349.5t280.5 -124.5q131 0 267 58v-92q-110 -56 -267 -56h-12v-204h-82v210q-186 30 -288.5 175t-102.5 380z" />
<glyph unicode="&#xa3;" d="M78 0v84q110 21 171.5 110t61.5 224v258h-211v82h211v297q0 204 98 315t281 111q175 0 330 -68l-35 -86q-157 66 -295 66q-141 0 -209.5 -81t-68.5 -253v-301h411v-82h-411v-256q0 -116 -35 -196t-113 -128h809v-96h-995z" />
<glyph unicode="&#xa5;" d="M43 1462h117l426 -796l428 796h110l-432 -788h283v-82h-338v-205h338v-82h-338v-305h-105v305h-337v82h337v205h-337v82h278z" />
<glyph unicode="&#xa8;" horiz-adv-x="1182" d="M336 1389q0 46 15.5 66t47.5 20q64 0 64 -86t-64 -86q-63 0 -63 86zM717 1389q0 46 15.5 66t47.5 20q64 0 64 -86t-64 -86q-63 0 -63 86z" />
<glyph unicode="&#xa9;" horiz-adv-x="1704" d="M100 731q0 200 100 375t275 276t377 101q200 0 375 -100t276 -275t101 -377q0 -197 -97 -370t-272 -277t-383 -104q-207 0 -382 103.5t-272.5 276.5t-97.5 371zM193 731q0 -178 88.5 -329.5t240.5 -240.5t330 -89t329.5 88.5t240.5 240.5t89 330q0 174 -85.5 325 t-239 243t-334.5 92q-176 0 -328.5 -88.5t-241.5 -242.5t-89 -329zM489 725q0 208 111 332.5t297 124.5q119 0 227 -52l-37 -83q-98 45 -190 45q-142 0 -222.5 -94.5t-80.5 -264.5q0 -186 74.5 -275t220.5 -89q84 0 198 43v-88q-102 -45 -208 -45q-187 0 -288.5 115 t-101.5 331z" />
<glyph unicode="&#xab;" horiz-adv-x="885" d="M82 516v27l309 393l62 -43l-254 -363l254 -362l-62 -43zM442 516v27l310 393l61 -43l-254 -363l254 -362l-61 -43z" />
<glyph unicode="&#xad;" horiz-adv-x="659" d="M92 512v82h475v-82h-475z" />
<glyph unicode="&#xae;" horiz-adv-x="1704" d="M100 731q0 200 100 375t275 276t377 101q200 0 375 -100t276 -275t101 -377q0 -197 -97 -370t-272 -277t-383 -104q-207 0 -382 103.5t-272.5 276.5t-97.5 371zM193 731q0 -178 88.5 -329.5t240.5 -240.5t330 -89t329.5 88.5t240.5 240.5t89 330q0 174 -85.5 325 t-239 243t-334.5 92q-176 0 -328.5 -88.5t-241.5 -242.5t-89 -329zM608 291v880h211q143 0 222 -62t79 -191q0 -79 -38.5 -139.5t-110.5 -94.5l237 -393h-121l-210 360h-168v-360h-101zM709 731h112q91 0 143 46.5t52 135.5q0 172 -197 172h-110v-354z" />
<glyph unicode="&#xb4;" horiz-adv-x="1182" d="M393 1241v16q73 79 144.5 171.5t97.5 140.5h141v-17q-36 -52 -122.5 -138t-190.5 -173h-70z" />
<glyph unicode="&#xb8;" horiz-adv-x="420" d="M43 -393q30 -10 92 -10q78 0 119 28t41 80q0 94 -193 121l93 174h96l-66 -117q168 -37 168 -174q0 -100 -67.5 -150.5t-188.5 -50.5q-68 0 -94 11v88z" />
<glyph unicode="&#xbb;" horiz-adv-x="885" d="M72 168l254 362l-254 363l61 43l309 -391v-27l-309 -393zM432 168l254 362l-254 363l62 43l309 -391v-27l-309 -393z" />
<glyph unicode="&#x2c6;" horiz-adv-x="1182" d="M299 1241v16q62 67 131.5 156t110.5 156h98q68 -120 242 -312v-16h-70q-122 101 -221 207q-108 -114 -221 -207h-70z" />
<glyph unicode="&#x2da;" horiz-adv-x="1182" d="M371 1456q0 94 60 152.5t157 58.5t157 -59t60 -152q0 -97 -60 -155t-157 -58t-157 58t-60 155zM451 1456q0 -66 37.5 -103.5t99.5 -37.5t99.5 37.5t37.5 103.5q0 64 -39 101.5t-98 37.5q-62 0 -99.5 -38t-37.5 -101z" />
<glyph unicode="&#x2dc;" horiz-adv-x="1182" d="M283 1243q10 111 63 174.5t137 63.5q48 0 88 -25t82 -59q34 -28 66 -50t61 -22q46 0 77 36.5t48 119.5h76q-16 -116 -69 -177t-132 -61q-36 0 -75 18.5t-101 71.5q-32 26 -62.5 46t-62.5 20q-45 0 -75 -34.5t-48 -121.5h-73z" />
<glyph unicode="&#x2000;" horiz-adv-x="833" />
<glyph unicode="&#x2001;" horiz-adv-x="1667" />
<glyph unicode="&#x2002;" horiz-adv-x="833" />
<glyph unicode="&#x2003;" horiz-adv-x="1667" />
<glyph unicode="&#x2004;" horiz-adv-x="555" />
<glyph unicode="&#x2005;" horiz-adv-x="416" />
<glyph unicode="&#x2006;" horiz-adv-x="277" />
<glyph unicode="&#x2007;" horiz-adv-x="277" />
<glyph unicode="&#x2008;" horiz-adv-x="208" />
<glyph unicode="&#x2009;" horiz-adv-x="333" />
<glyph unicode="&#x200a;" horiz-adv-x="92" />
<glyph unicode="&#x2010;" horiz-adv-x="659" d="M92 512v82h475v-82h-475z" />
<glyph unicode="&#x2011;" horiz-adv-x="659" d="M92 512v82h475v-82h-475z" />
<glyph unicode="&#x2012;" horiz-adv-x="659" d="M92 512v82h475v-82h-475z" />
<glyph unicode="&#x2013;" horiz-adv-x="1024" d="M82 512v82h860v-82h-860z" />
<glyph unicode="&#x2014;" horiz-adv-x="2048" d="M82 512v82h1884v-82h-1884z" />
<glyph unicode="&#x2018;" horiz-adv-x="297" d="M29 981q32 112 81.5 251t92.5 230h65q-30 -101 -64.5 -257t-45.5 -244h-117z" />
<glyph unicode="&#x2019;" horiz-adv-x="297" d="M29 961q29 96 61 241.5t49 259.5h117l12 -20q-75 -265 -174 -481h-65z" />
<glyph unicode="&#x201a;" horiz-adv-x="451" d="M68 -263q29 96 61 241.5t49 259.5h117l12 -20q-75 -265 -174 -481h-65z" />
<glyph unicode="&#x201c;" horiz-adv-x="614" d="M29 981q32 112 81.5 251t92.5 230h65q-30 -101 -64.5 -257t-45.5 -244h-117zM346 981q34 120 83 255t91 226h66q-30 -98 -63 -248.5t-48 -252.5h-117z" />
<glyph unicode="&#x201d;" horiz-adv-x="614" d="M29 961q29 96 61 241.5t49 259.5h117l12 -20q-75 -265 -174 -481h-65zM346 961q30 98 63 248.5t48 252.5h116l13 -20q-36 -128 -85 -261t-89 -220h-66z" />
<glyph unicode="&#x201e;" horiz-adv-x="768" d="M68 -263q29 96 61 241.5t49 259.5h117l12 -20q-75 -265 -174 -481h-65zM385 -263q30 98 63 248.5t48 252.5h116l13 -20q-36 -128 -85 -261t-89 -220h-66z" />
<glyph unicode="&#x2022;" horiz-adv-x="770" d="M231 748q0 89 40.5 134.5t113.5 45.5t113.5 -47t40.5 -133q0 -85 -41 -133t-113 -48t-113 47t-41 134z" />
<glyph unicode="&#x2026;" horiz-adv-x="1466" d="M162 78q0 98 80 98q82 0 82 -98t-82 -98q-80 0 -80 98zM651 78q0 98 80 98q82 0 82 -98t-82 -98q-80 0 -80 98zM1141 78q0 98 80 98q82 0 82 -98t-82 -98q-80 0 -80 98z" />
<glyph unicode="&#x202f;" horiz-adv-x="333" />
<glyph unicode="&#x2039;" horiz-adv-x="524" d="M82 516v27l309 393l62 -43l-254 -363l254 -362l-62 -43z" />
<glyph unicode="&#x203a;" horiz-adv-x="524" d="M72 168l254 362l-254 363l61 43l309 -391v-27l-309 -393z" />
<glyph unicode="&#x205f;" horiz-adv-x="416" />
<glyph unicode="&#x20ac;" d="M74 528v82h172q-4 38 -4 113l4 102h-172v82h184q39 272 183 425t362 153q88 0 161 -17t148 -57l-39 -86q-132 72 -270 72q-174 0 -288 -125.5t-155 -364.5h502v-82h-510l-4 -104v-24q0 -65 4 -87h449v-82h-443q30 -217 147.5 -338.5t301.5 -121.5q148 0 287 65v-94 q-81 -34 -150.5 -46.5t-140.5 -12.5q-228 0 -367.5 140t-181.5 408h-180z" />
<glyph unicode="&#x2122;" horiz-adv-x="1485" d="M10 1384v78h522v-78h-219v-643h-86v643h-217zM608 741v721h125l221 -606l224 606h125v-721h-86v398l4 207h-7l-227 -605h-74l-221 609h-6l4 -201v-408h-82z" />
<glyph unicode="&#xe000;" horiz-adv-x="1085" d="M0 0v1085h1085v-1085h-1085z" />
<hkern u1="&#x22;" u2="u" k="61" />
<hkern u1="&#x22;" u2="s" k="61" />
<hkern u1="&#x22;" u2="r" k="61" />
<hkern u1="&#x22;" u2="q" k="123" />
<hkern u1="&#x22;" u2="p" k="61" />
<hkern u1="&#x22;" u2="o" k="123" />
<hkern u1="&#x22;" u2="n" k="61" />
<hkern u1="&#x22;" u2="m" k="61" />
<hkern u1="&#x22;" u2="g" k="61" />
<hkern u1="&#x22;" u2="e" k="123" />
<hkern u1="&#x22;" u2="d" k="123" />
<hkern u1="&#x22;" u2="c" k="123" />
<hkern u1="&#x22;" u2="a" k="82" />
<hkern u1="&#x22;" u2="Y" k="-20" />
<hkern u1="&#x22;" u2="W" k="-41" />
<hkern u1="&#x22;" u2="V" k="-41" />
<hkern u1="&#x22;" u2="T" k="-41" />
<hkern u1="&#x22;" u2="A" k="143" />
<hkern u1="&#x27;" u2="u" k="61" />
<hkern u1="&#x27;" u2="s" k="61" />
<hkern u1="&#x27;" u2="r" k="61" />
<hkern u1="&#x27;" u2="q" k="123" />
<hkern u1="&#x27;" u2="p" k="61" />
<hkern u1="&#x27;" u2="o" k="123" />
<hkern u1="&#x27;" u2="n" k="61" />
<hkern u1="&#x27;" u2="m" k="61" />
<hkern u1="&#x27;" u2="g" k="61" />
<hkern u1="&#x27;" u2="e" k="123" />
<hkern u1="&#x27;" u2="d" k="123" />
<hkern u1="&#x27;" u2="c" k="123" />
<hkern u1="&#x27;" u2="a" k="82" />
<hkern u1="&#x27;" u2="Y" k="-20" />
<hkern u1="&#x27;" u2="W" k="-41" />
<hkern u1="&#x27;" u2="V" k="-41" />
<hkern u1="&#x27;" u2="T" k="-41" />
<hkern u1="&#x27;" u2="A" k="143" />
<hkern u1="&#x28;" u2="J" k="-184" />
<hkern u1="&#x2c;" u2="Y" k="123" />
<hkern u1="&#x2c;" u2="W" k="123" />
<hkern u1="&#x2c;" u2="V" k="123" />
<hkern u1="&#x2c;" u2="U" k="41" />
<hkern u1="&#x2c;" u2="T" k="143" />
<hkern u1="&#x2c;" u2="Q" k="102" />
<hkern u1="&#x2c;" u2="O" k="102" />
<hkern u1="&#x2c;" u2="G" k="102" />
<hkern u1="&#x2c;" u2="C" k="102" />
<hkern u1="&#x2d;" u2="T" k="82" />
<hkern u1="&#x2e;" u2="Y" k="123" />
<hkern u1="&#x2e;" u2="W" k="123" />
<hkern u1="&#x2e;" u2="V" k="123" />
<hkern u1="&#x2e;" u2="U" k="41" />
<hkern u1="&#x2e;" u2="T" k="143" />
<hkern u1="&#x2e;" u2="Q" k="102" />
<hkern u1="&#x2e;" u2="O" k="102" />
<hkern u1="&#x2e;" u2="G" k="102" />
<hkern u1="&#x2e;" u2="C" k="102" />
<hkern u1="A" u2="&#x201d;" k="143" />
<hkern u1="A" u2="&#x2019;" k="143" />
<hkern u1="A" u2="Y" k="123" />
<hkern u1="A" u2="W" k="82" />
<hkern u1="A" u2="V" k="82" />
<hkern u1="A" u2="T" k="143" />
<hkern u1="A" u2="Q" k="41" />
<hkern u1="A" u2="O" k="41" />
<hkern u1="A" u2="J" k="-266" />
<hkern u1="A" u2="G" k="41" />
<hkern u1="A" u2="C" k="41" />
<hkern u1="A" u2="&#x27;" k="143" />
<hkern u1="A" u2="&#x22;" k="143" />
<hkern u1="B" u2="&#x201e;" k="82" />
<hkern u1="B" u2="&#x201a;" k="82" />
<hkern u1="B" u2="Z" k="20" />
<hkern u1="B" u2="Y" k="20" />
<hkern u1="B" u2="X" k="41" />
<hkern u1="B" u2="W" k="20" />
<hkern u1="B" u2="V" k="20" />
<hkern u1="B" u2="T" k="61" />
<hkern u1="B" u2="A" k="41" />
<hkern u1="B" u2="&#x2e;" k="82" />
<hkern u1="B" u2="&#x2c;" k="82" />
<hkern u1="C" u2="Q" k="41" />
<hkern u1="C" u2="O" k="41" />
<hkern u1="C" u2="G" k="41" />
<hkern u1="C" u2="C" k="41" />
<hkern u1="D" u2="&#x201e;" k="82" />
<hkern u1="D" u2="&#x201a;" k="82" />
<hkern u1="D" u2="Z" k="20" />
<hkern u1="D" u2="Y" k="20" />
<hkern u1="D" u2="X" k="41" />
<hkern u1="D" u2="W" k="20" />
<hkern u1="D" u2="V" k="20" />
<hkern u1="D" u2="T" k="61" />
<hkern u1="D" u2="A" k="41" />
<hkern u1="D" u2="&#x2e;" k="82" />
<hkern u1="D" u2="&#x2c;" k="82" />
<hkern u1="E" u2="J" k="-123" />
<hkern u1="F" u2="&#x201e;" k="123" />
<hkern u1="F" u2="&#x201a;" k="123" />
<hkern u1="F" u2="A" k="41" />
<hkern u1="F" u2="&#x3f;" k="-41" />
<hkern u1="F" u2="&#x2e;" k="123" />
<hkern u1="F" u2="&#x2c;" k="123" />
<hkern u1="K" u2="Q" k="41" />
<hkern u1="K" u2="O" k="41" />
<hkern u1="K" u2="G" k="41" />
<hkern u1="K" u2="C" k="41" />
<hkern u1="L" u2="&#x201d;" k="164" />
<hkern u1="L" u2="&#x2019;" k="164" />
<hkern u1="L" u2="Y" k="61" />
<hkern u1="L" u2="W" k="41" />
<hkern u1="L" u2="V" k="41" />
<hkern u1="L" u2="U" k="20" />
<hkern u1="L" u2="T" k="41" />
<hkern u1="L" u2="Q" k="41" />
<hkern u1="L" u2="O" k="41" />
<hkern u1="L" u2="G" k="41" />
<hkern u1="L" u2="C" k="41" />
<hkern u1="L" u2="&#x27;" k="164" />
<hkern u1="L" u2="&#x22;" k="164" />
<hkern u1="O" u2="&#x201e;" k="82" />
<hkern u1="O" u2="&#x201a;" k="82" />
<hkern u1="O" u2="Z" k="20" />
<hkern u1="O" u2="Y" k="20" />
<hkern u1="O" u2="X" k="41" />
<hkern u1="O" u2="W" k="20" />
<hkern u1="O" u2="V" k="20" />
<hkern u1="O" u2="T" k="61" />
<hkern u1="O" u2="A" k="41" />
<hkern u1="O" u2="&#x2e;" k="82" />
<hkern u1="O" u2="&#x2c;" k="82" />
<hkern u1="P" u2="&#x201e;" k="266" />
<hkern u1="P" u2="&#x201a;" k="266" />
<hkern u1="P" u2="Z" k="20" />
<hkern u1="P" u2="X" k="41" />
<hkern u1="P" u2="A" k="102" />
<hkern u1="P" u2="&#x2e;" k="266" />
<hkern u1="P" u2="&#x2c;" k="266" />
<hkern u1="Q" u2="&#x201e;" k="82" />
<hkern u1="Q" u2="&#x201a;" k="82" />
<hkern u1="Q" u2="Z" k="20" />
<hkern u1="Q" u2="Y" k="20" />
<hkern u1="Q" u2="X" k="41" />
<hkern u1="Q" u2="W" k="20" />
<hkern u1="Q" u2="V" k="20" />
<hkern u1="Q" u2="T" k="61" />
<hkern u1="Q" u2="A" k="41" />
<hkern u1="Q" u2="&#x2e;" k="82" />
<hkern u1="Q" u2="&#x2c;" k="82" />
<hkern u1="T" u2="&#x201e;" k="123" />
<hkern u1="T" u2="&#x201a;" k="123" />
<hkern u1="T" u2="&#x2014;" k="82" />
<hkern u1="T" u2="&#x2013;" k="82" />
<hkern u1="T" u2="z" k="82" />
<hkern u1="T" u2="y" k="41" />
<hkern u1="T" u2="x" k="41" />
<hkern u1="T" u2="w" k="41" />
<hkern u1="T" u2="v" k="41" />
<hkern u1="T" u2="u" k="102" />
<hkern u1="T" u2="s" k="123" />
<hkern u1="T" u2="r" k="102" />
<hkern u1="T" u2="q" k="143" />
<hkern u1="T" u2="p" k="102" />
<hkern u1="T" u2="o" k="143" />
<hkern u1="T" u2="n" k="102" />
<hkern u1="T" u2="m" k="102" />
<hkern u1="T" u2="g" k="143" />
<hkern u1="T" u2="e" k="143" />
<hkern u1="T" u2="d" k="143" />
<hkern u1="T" u2="c" k="143" />
<hkern u1="T" u2="a" k="164" />
<hkern u1="T" u2="T" k="-41" />
<hkern u1="T" u2="Q" k="41" />
<hkern u1="T" u2="O" k="41" />
<hkern u1="T" u2="G" k="41" />
<hkern u1="T" u2="C" k="41" />
<hkern u1="T" u2="A" k="143" />
<hkern u1="T" u2="&#x3f;" k="-41" />
<hkern u1="T" u2="&#x2e;" k="123" />
<hkern u1="T" u2="&#x2d;" k="82" />
<hkern u1="T" u2="&#x2c;" k="123" />
<hkern u1="U" u2="&#x201e;" k="41" />
<hkern u1="U" u2="&#x201a;" k="41" />
<hkern u1="U" u2="A" k="20" />
<hkern u1="U" u2="&#x2e;" k="41" />
<hkern u1="U" u2="&#x2c;" k="41" />
<hkern u1="V" u2="&#x201e;" k="102" />
<hkern u1="V" u2="&#x201a;" k="102" />
<hkern u1="V" u2="u" k="20" />
<hkern u1="V" u2="s" k="20" />
<hkern u1="V" u2="r" k="20" />
<hkern u1="V" u2="q" k="41" />
<hkern u1="V" u2="p" k="20" />
<hkern u1="V" u2="o" k="41" />
<hkern u1="V" u2="n" k="20" />
<hkern u1="V" u2="m" k="20" />
<hkern u1="V" u2="g" k="20" />
<hkern u1="V" u2="e" k="41" />
<hkern u1="V" u2="d" k="41" />
<hkern u1="V" u2="c" k="41" />
<hkern u1="V" u2="a" k="41" />
<hkern u1="V" u2="Q" k="20" />
<hkern u1="V" u2="O" k="20" />
<hkern u1="V" u2="G" k="20" />
<hkern u1="V" u2="C" k="20" />
<hkern u1="V" u2="A" k="82" />
<hkern u1="V" u2="&#x3f;" k="-41" />
<hkern u1="V" u2="&#x2e;" k="102" />
<hkern u1="V" u2="&#x2c;" k="102" />
<hkern u1="W" u2="&#x201e;" k="102" />
<hkern u1="W" u2="&#x201a;" k="102" />
<hkern u1="W" u2="u" k="20" />
<hkern u1="W" u2="s" k="20" />
<hkern u1="W" u2="r" k="20" />
<hkern u1="W" u2="q" k="41" />
<hkern u1="W" u2="p" k="20" />
<hkern u1="W" u2="o" k="41" />
<hkern u1="W" u2="n" k="20" />
<hkern u1="W" u2="m" k="20" />
<hkern u1="W" u2="g" k="20" />
<hkern u1="W" u2="e" k="41" />
<hkern u1="W" u2="d" k="41" />
<hkern u1="W" u2="c" k="41" />
<hkern u1="W" u2="a" k="41" />
<hkern u1="W" u2="Q" k="20" />
<hkern u1="W" u2="O" k="20" />
<hkern u1="W" u2="G" k="20" />
<hkern u1="W" u2="C" k="20" />
<hkern u1="W" u2="A" k="82" />
<hkern u1="W" u2="&#x3f;" k="-41" />
<hkern u1="W" u2="&#x2e;" k="102" />
<hkern u1="W" u2="&#x2c;" k="102" />
<hkern u1="X" u2="Q" k="41" />
<hkern u1="X" u2="O" k="41" />
<hkern u1="X" u2="G" k="41" />
<hkern u1="X" u2="C" k="41" />
<hkern u1="Y" u2="&#x201e;" k="123" />
<hkern u1="Y" u2="&#x201a;" k="123" />
<hkern u1="Y" u2="z" k="41" />
<hkern u1="Y" u2="u" k="61" />
<hkern u1="Y" u2="s" k="82" />
<hkern u1="Y" u2="r" k="61" />
<hkern u1="Y" u2="q" k="102" />
<hkern u1="Y" u2="p" k="61" />
<hkern u1="Y" u2="o" k="102" />
<hkern u1="Y" u2="n" k="61" />
<hkern u1="Y" u2="m" k="61" />
<hkern u1="Y" u2="g" k="41" />
<hkern u1="Y" u2="e" k="102" />
<hkern u1="Y" u2="d" k="102" />
<hkern u1="Y" u2="c" k="102" />
<hkern u1="Y" u2="a" k="102" />
<hkern u1="Y" u2="Q" k="41" />
<hkern u1="Y" u2="O" k="41" />
<hkern u1="Y" u2="G" k="41" />
<hkern u1="Y" u2="C" k="41" />
<hkern u1="Y" u2="A" k="123" />
<hkern u1="Y" u2="&#x3f;" k="-41" />
<hkern u1="Y" u2="&#x2e;" k="123" />
<hkern u1="Y" u2="&#x2c;" k="123" />
<hkern u1="Z" u2="Q" k="20" />
<hkern u1="Z" u2="O" k="20" />
<hkern u1="Z" u2="G" k="20" />
<hkern u1="Z" u2="C" k="20" />
<hkern u1="[" u2="J" k="-184" />
<hkern u1="a" u2="&#x201d;" k="20" />
<hkern u1="a" u2="&#x2019;" k="20" />
<hkern u1="a" u2="&#x27;" k="20" />
<hkern u1="a" u2="&#x22;" k="20" />
<hkern u1="b" u2="&#x201d;" k="20" />
<hkern u1="b" u2="&#x2019;" k="20" />
<hkern u1="b" u2="z" k="20" />
<hkern u1="b" u2="y" k="41" />
<hkern u1="b" u2="x" k="41" />
<hkern u1="b" u2="w" k="41" />
<hkern u1="b" u2="v" k="41" />
<hkern u1="b" u2="&#x27;" k="20" />
<hkern u1="b" u2="&#x22;" k="20" />
<hkern u1="c" u2="&#x201d;" k="-41" />
<hkern u1="c" u2="&#x2019;" k="-41" />
<hkern u1="c" u2="&#x27;" k="-41" />
<hkern u1="c" u2="&#x22;" k="-41" />
<hkern u1="e" u2="&#x201d;" k="20" />
<hkern u1="e" u2="&#x2019;" k="20" />
<hkern u1="e" u2="z" k="20" />
<hkern u1="e" u2="y" k="41" />
<hkern u1="e" u2="x" k="41" />
<hkern u1="e" u2="w" k="41" />
<hkern u1="e" u2="v" k="41" />
<hkern u1="e" u2="&#x27;" k="20" />
<hkern u1="e" u2="&#x22;" k="20" />
<hkern u1="f" u2="&#x201d;" k="-123" />
<hkern u1="f" u2="&#x2019;" k="-123" />
<hkern u1="f" u2="&#x27;" k="-123" />
<hkern u1="f" u2="&#x22;" k="-123" />
<hkern u1="h" u2="&#x201d;" k="20" />
<hkern u1="h" u2="&#x2019;" k="20" />
<hkern u1="h" u2="&#x27;" k="20" />
<hkern u1="h" u2="&#x22;" k="20" />
<hkern u1="k" u2="q" k="41" />
<hkern u1="k" u2="o" k="41" />
<hkern u1="k" u2="e" k="41" />
<hkern u1="k" u2="d" k="41" />
<hkern u1="k" u2="c" k="41" />
<hkern u1="m" u2="&#x201d;" k="20" />
<hkern u1="m" u2="&#x2019;" k="20" />
<hkern u1="m" u2="&#x27;" k="20" />
<hkern u1="m" u2="&#x22;" k="20" />
<hkern u1="n" u2="&#x201d;" k="20" />
<hkern u1="n" u2="&#x2019;" k="20" />
<hkern u1="n" u2="&#x27;" k="20" />
<hkern u1="n" u2="&#x22;" k="20" />
<hkern u1="o" u2="&#x201d;" k="20" />
<hkern u1="o" u2="&#x2019;" k="20" />
<hkern u1="o" u2="z" k="20" />
<hkern u1="o" u2="y" k="41" />
<hkern u1="o" u2="x" k="41" />
<hkern u1="o" u2="w" k="41" />
<hkern u1="o" u2="v" k="41" />
<hkern u1="o" u2="&#x27;" k="20" />
<hkern u1="o" u2="&#x22;" k="20" />
<hkern u1="p" u2="&#x201d;" k="20" />
<hkern u1="p" u2="&#x2019;" k="20" />
<hkern u1="p" u2="z" k="20" />
<hkern u1="p" u2="y" k="41" />
<hkern u1="p" u2="x" k="41" />
<hkern u1="p" u2="w" k="41" />
<hkern u1="p" u2="v" k="41" />
<hkern u1="p" u2="&#x27;" k="20" />
<hkern u1="p" u2="&#x22;" k="20" />
<hkern u1="r" u2="&#x201d;" k="-82" />
<hkern u1="r" u2="&#x2019;" k="-82" />
<hkern u1="r" u2="q" k="41" />
<hkern u1="r" u2="o" k="41" />
<hkern u1="r" u2="g" k="20" />
<hkern u1="r" u2="e" k="41" />
<hkern u1="r" u2="d" k="41" />
<hkern u1="r" u2="c" k="41" />
<hkern u1="r" u2="a" k="41" />
<hkern u1="r" u2="&#x27;" k="-82" />
<hkern u1="r" u2="&#x22;" k="-82" />
<hkern u1="t" u2="&#x201d;" k="-41" />
<hkern u1="t" u2="&#x2019;" k="-41" />
<hkern u1="t" u2="&#x27;" k="-41" />
<hkern u1="t" u2="&#x22;" k="-41" />
<hkern u1="v" u2="&#x201e;" k="82" />
<hkern u1="v" u2="&#x201d;" k="-82" />
<hkern u1="v" u2="&#x201a;" k="82" />
<hkern u1="v" u2="&#x2019;" k="-82" />
<hkern u1="v" u2="&#x3f;" k="-41" />
<hkern u1="v" u2="&#x2e;" k="82" />
<hkern u1="v" u2="&#x2c;" k="82" />
<hkern u1="v" u2="&#x27;" k="-82" />
<hkern u1="v" u2="&#x22;" k="-82" />
<hkern u1="w" u2="&#x201e;" k="82" />
<hkern u1="w" u2="&#x201d;" k="-82" />
<hkern u1="w" u2="&#x201a;" k="82" />
<hkern u1="w" u2="&#x2019;" k="-82" />
<hkern u1="w" u2="&#x3f;" k="-41" />
<hkern u1="w" u2="&#x2e;" k="82" />
<hkern u1="w" u2="&#x2c;" k="82" />
<hkern u1="w" u2="&#x27;" k="-82" />
<hkern u1="w" u2="&#x22;" k="-82" />
<hkern u1="x" u2="q" k="41" />
<hkern u1="x" u2="o" k="41" />
<hkern u1="x" u2="e" k="41" />
<hkern u1="x" u2="d" k="41" />
<hkern u1="x" u2="c" k="41" />
<hkern u1="y" u2="&#x201e;" k="82" />
<hkern u1="y" u2="&#x201d;" k="-82" />
<hkern u1="y" u2="&#x201a;" k="82" />
<hkern u1="y" u2="&#x2019;" k="-82" />
<hkern u1="y" u2="&#x3f;" k="-41" />
<hkern u1="y" u2="&#x2e;" k="82" />
<hkern u1="y" u2="&#x2c;" k="82" />
<hkern u1="y" u2="&#x27;" k="-82" />
<hkern u1="y" u2="&#x22;" k="-82" />
<hkern u1="&#x7b;" u2="J" k="-184" />
<hkern u1="&#x2013;" u2="T" k="82" />
<hkern u1="&#x2014;" u2="T" k="82" />
<hkern u1="&#x2018;" u2="u" k="61" />
<hkern u1="&#x2018;" u2="s" k="61" />
<hkern u1="&#x2018;" u2="r" k="61" />
<hkern u1="&#x2018;" u2="q" k="123" />
<hkern u1="&#x2018;" u2="p" k="61" />
<hkern u1="&#x2018;" u2="o" k="123" />
<hkern u1="&#x2018;" u2="n" k="61" />
<hkern u1="&#x2018;" u2="m" k="61" />
<hkern u1="&#x2018;" u2="g" k="61" />
<hkern u1="&#x2018;" u2="e" k="123" />
<hkern u1="&#x2018;" u2="d" k="123" />
<hkern u1="&#x2018;" u2="c" k="123" />
<hkern u1="&#x2018;" u2="a" k="82" />
<hkern u1="&#x2018;" u2="Y" k="-20" />
<hkern u1="&#x2018;" u2="W" k="-41" />
<hkern u1="&#x2018;" u2="V" k="-41" />
<hkern u1="&#x2018;" u2="T" k="-41" />
<hkern u1="&#x2018;" u2="A" k="143" />
<hkern u1="&#x2019;" u2="u" k="61" />
<hkern u1="&#x2019;" u2="s" k="61" />
<hkern u1="&#x2019;" u2="r" k="61" />
<hkern u1="&#x2019;" u2="q" k="123" />
<hkern u1="&#x2019;" u2="p" k="61" />
<hkern u1="&#x2019;" u2="o" k="123" />
<hkern u1="&#x2019;" u2="n" k="61" />
<hkern u1="&#x2019;" u2="m" k="61" />
<hkern u1="&#x2019;" u2="g" k="61" />
<hkern u1="&#x2019;" u2="e" k="123" />
<hkern u1="&#x2019;" u2="d" k="123" />
<hkern u1="&#x2019;" u2="c" k="123" />
<hkern u1="&#x2019;" u2="a" k="82" />
<hkern u1="&#x2019;" u2="Y" k="-20" />
<hkern u1="&#x2019;" u2="W" k="-41" />
<hkern u1="&#x2019;" u2="V" k="-41" />
<hkern u1="&#x2019;" u2="T" k="-41" />
<hkern u1="&#x2019;" u2="A" k="143" />
<hkern u1="&#x201a;" u2="Y" k="123" />
<hkern u1="&#x201a;" u2="W" k="123" />
<hkern u1="&#x201a;" u2="V" k="123" />
<hkern u1="&#x201a;" u2="U" k="41" />
<hkern u1="&#x201a;" u2="T" k="143" />
<hkern u1="&#x201a;" u2="Q" k="102" />
<hkern u1="&#x201a;" u2="O" k="102" />
<hkern u1="&#x201a;" u2="G" k="102" />
<hkern u1="&#x201a;" u2="C" k="102" />
<hkern u1="&#x201c;" u2="u" k="61" />
<hkern u1="&#x201c;" u2="s" k="61" />
<hkern u1="&#x201c;" u2="r" k="61" />
<hkern u1="&#x201c;" u2="q" k="123" />
<hkern u1="&#x201c;" u2="p" k="61" />
<hkern u1="&#x201c;" u2="o" k="123" />
<hkern u1="&#x201c;" u2="n" k="61" />
<hkern u1="&#x201c;" u2="m" k="61" />
<hkern u1="&#x201c;" u2="g" k="61" />
<hkern u1="&#x201c;" u2="e" k="123" />
<hkern u1="&#x201c;" u2="d" k="123" />
<hkern u1="&#x201c;" u2="c" k="123" />
<hkern u1="&#x201c;" u2="a" k="82" />
<hkern u1="&#x201c;" u2="Y" k="-20" />
<hkern u1="&#x201c;" u2="W" k="-41" />
<hkern u1="&#x201c;" u2="V" k="-41" />
<hkern u1="&#x201c;" u2="T" k="-41" />
<hkern u1="&#x201c;" u2="A" k="143" />
<hkern u1="&#x201e;" u2="Y" k="123" />
<hkern u1="&#x201e;" u2="W" k="123" />
<hkern u1="&#x201e;" u2="V" k="123" />
<hkern u1="&#x201e;" u2="U" k="41" />
<hkern u1="&#x201e;" u2="T" k="143" />
<hkern u1="&#x201e;" u2="Q" k="102" />
<hkern u1="&#x201e;" u2="O" k="102" />
<hkern u1="&#x201e;" u2="G" k="102" />
<hkern u1="&#x201e;" u2="C" k="102" />
</font>
</defs></svg> 